<?xml version="1.0" encoding="UTF-8"?>
<symbol version="7" name="cd_fsm">
    <symboltype>BLOCK</symboltype>
    <timestamp>2017-12-23T9:47:52</timestamp>
    <pin polarity="Input" x="0" y="-928" name="i_clk" />
    <pin polarity="Input" x="0" y="-864" name="i_clr" />
    <pin polarity="Input" x="0" y="-800" name="i_wr" />
    <pin polarity="Input" x="0" y="-736" name="i_rd" />
    <pin polarity="Input" x="0" y="-672" name="i_l1_miss" />
    <pin polarity="Input" x="0" y="-608" name="i_l2_ready" />
    <pin polarity="Input" x="0" y="-544" name="i_l2_miss" />
    <pin polarity="Input" x="0" y="-480" name="i_l2_changed" />
    <pin polarity="Input" x="0" y="-416" name="i_ram_ready" />
    <pin polarity="Input" x="0" y="-352" name="i_ram_changed" />
    <pin polarity="Input" x="0" y="-288" name="i_addr(13:0)" />
    <pin polarity="Input" x="0" y="-224" name="i_data(7:0)" />
    <pin polarity="Input" x="0" y="-160" name="i_l1_data(31:0)" />
    <pin polarity="Input" x="0" y="-96" name="i_l2_data(31:0)" />
    <pin polarity="Input" x="0" y="-32" name="i_ram_data(31:0)" />
    <pin polarity="Output" x="544" y="-928" name="o_w_ack" />
    <pin polarity="Output" x="544" y="-848" name="o_r_ack" />
    <pin polarity="Output" x="544" y="-768" name="o_l1_wr" />
    <pin polarity="Output" x="544" y="-688" name="o_l1_rd" />
    <pin polarity="Output" x="544" y="-608" name="o_l2_wr" />
    <pin polarity="Output" x="544" y="-528" name="o_l2_rd" />
    <pin polarity="Output" x="544" y="-448" name="o_ram_wr" />
    <pin polarity="Output" x="544" y="-368" name="o_ram_rd" />
    <pin polarity="Output" x="544" y="-288" name="o_data(7:0)" />
    <pin polarity="Output" x="544" y="-208" name="o_mem_data(31:0)" />
    <pin polarity="Output" x="544" y="-48" name="o_ram_addr(13:0)" />
    <pin polarity="Output" x="544" y="32" name="o_l_addr(11:0)" />
    <graph>
        <attrtext style="alignment:BCENTER;fontsize:56;fontname:Arial" attrname="SymbolName" x="272" y="-968" type="symbol" />
        <attrtext style="fontsize:24;fontname:Arial" attrname="PinName" x="72" y="-928" type="pin i_clk" />
        <attrtext style="fontsize:24;fontname:Arial" attrname="PinName" x="72" y="-864" type="pin i_clr" />
        <attrtext style="fontsize:24;fontname:Arial" attrname="PinName" x="72" y="-800" type="pin i_wr" />
        <attrtext style="fontsize:24;fontname:Arial" attrname="PinName" x="72" y="-736" type="pin i_rd" />
        <attrtext style="fontsize:24;fontname:Arial" attrname="PinName" x="72" y="-672" type="pin i_l1_miss" />
        <attrtext style="fontsize:24;fontname:Arial" attrname="PinName" x="72" y="-608" type="pin i_l2_ready" />
        <attrtext style="fontsize:24;fontname:Arial" attrname="PinName" x="72" y="-544" type="pin i_l2_miss" />
        <attrtext style="fontsize:24;fontname:Arial" attrname="PinName" x="72" y="-480" type="pin i_l2_changed" />
        <attrtext style="fontsize:24;fontname:Arial" attrname="PinName" x="72" y="-416" type="pin i_ram_ready" />
        <attrtext style="fontsize:24;fontname:Arial" attrname="PinName" x="72" y="-352" type="pin i_ram_changed" />
        <attrtext style="fontsize:24;fontname:Arial" attrname="PinName" x="72" y="-288" type="pin i_addr(13:0)" />
        <attrtext style="fontsize:24;fontname:Arial" attrname="PinName" x="72" y="-224" type="pin i_data(7:0)" />
        <attrtext style="fontsize:24;fontname:Arial" attrname="PinName" x="72" y="-160" type="pin i_l1_data(31:0)" />
        <attrtext style="fontsize:24;fontname:Arial" attrname="PinName" x="72" y="-96" type="pin i_l2_data(31:0)" />
        <attrtext style="fontsize:24;fontname:Arial" attrname="PinName" x="72" y="-32" type="pin i_ram_data(31:0)" />
        <attrtext style="alignment:RIGHT;fontsize:24;fontname:Arial" attrname="PinName" x="472" y="-928" type="pin o_w_ack" />
        <attrtext style="alignment:RIGHT;fontsize:24;fontname:Arial" attrname="PinName" x="472" y="-848" type="pin o_r_ack" />
        <attrtext style="alignment:RIGHT;fontsize:24;fontname:Arial" attrname="PinName" x="472" y="-768" type="pin o_l1_wr" />
        <attrtext style="alignment:RIGHT;fontsize:24;fontname:Arial" attrname="PinName" x="472" y="-688" type="pin o_l1_rd" />
        <attrtext style="alignment:RIGHT;fontsize:24;fontname:Arial" attrname="PinName" x="472" y="-608" type="pin o_l2_wr" />
        <attrtext style="alignment:RIGHT;fontsize:24;fontname:Arial" attrname="PinName" x="472" y="-528" type="pin o_l2_rd" />
        <attrtext style="alignment:RIGHT;fontsize:24;fontname:Arial" attrname="PinName" x="472" y="-448" type="pin o_ram_wr" />
        <attrtext style="alignment:RIGHT;fontsize:24;fontname:Arial" attrname="PinName" x="472" y="-368" type="pin o_ram_rd" />
        <attrtext style="alignment:RIGHT;fontsize:24;fontname:Arial" attrname="PinName" x="472" y="-288" type="pin o_data(7:0)" />
        <attrtext style="alignment:RIGHT;fontsize:24;fontname:Arial" attrname="PinName" x="472" y="-208" type="pin o_mem_data(31:0)" />
        <attrtext style="alignment:RIGHT;fontsize:24;fontname:Arial" attrname="PinName" x="472" y="-48" type="pin o_ram_addr(13:0)" />
        <attrtext style="alignment:RIGHT;fontsize:24;fontname:Arial" attrname="PinName" x="472" y="32" type="pin o_l_addr(11:0)" />
        <rect width="64" x="480" y="20" height="24" />
        <line x2="544" y1="32" y2="32" x1="480" />
        <line x2="0" y1="-928" y2="-928" x1="64" />
        <line x2="0" y1="-864" y2="-864" x1="64" />
        <line x2="0" y1="-800" y2="-800" x1="64" />
        <line x2="0" y1="-736" y2="-736" x1="64" />
        <line x2="0" y1="-672" y2="-672" x1="64" />
        <line x2="0" y1="-608" y2="-608" x1="64" />
        <line x2="0" y1="-544" y2="-544" x1="64" />
        <line x2="0" y1="-480" y2="-480" x1="64" />
        <line x2="0" y1="-416" y2="-416" x1="64" />
        <line x2="0" y1="-352" y2="-352" x1="64" />
        <rect width="64" x="0" y="-300" height="24" />
        <line x2="0" y1="-288" y2="-288" x1="64" />
        <rect width="64" x="0" y="-236" height="24" />
        <line x2="0" y1="-224" y2="-224" x1="64" />
        <rect width="64" x="0" y="-172" height="24" />
        <line x2="0" y1="-160" y2="-160" x1="64" />
        <rect width="64" x="0" y="-108" height="24" />
        <line x2="0" y1="-96" y2="-96" x1="64" />
        <rect width="64" x="0" y="-44" height="24" />
        <line x2="0" y1="-32" y2="-32" x1="64" />
        <line x2="544" y1="-928" y2="-928" x1="480" />
        <line x2="544" y1="-848" y2="-848" x1="480" />
        <line x2="544" y1="-768" y2="-768" x1="480" />
        <line x2="544" y1="-688" y2="-688" x1="480" />
        <line x2="544" y1="-608" y2="-608" x1="480" />
        <line x2="544" y1="-528" y2="-528" x1="480" />
        <line x2="544" y1="-448" y2="-448" x1="480" />
        <line x2="544" y1="-368" y2="-368" x1="480" />
        <rect width="64" x="480" y="-300" height="24" />
        <line x2="544" y1="-288" y2="-288" x1="480" />
        <rect width="64" x="480" y="-220" height="24" />
        <line x2="544" y1="-208" y2="-208" x1="480" />
        <rect width="64" x="480" y="-60" height="24" />
        <line x2="544" y1="-48" y2="-48" x1="480" />
        <rect width="416" x="64" y="-960" height="1024" />
    </graph>
</symbol>
