<?xml version="1.0" encoding="UTF-8"?>
<symbol version="7" name="l1">
    <symboltype>BLOCK</symboltype>
    <timestamp>2017-12-23T9:44:53</timestamp>
    <pin polarity="Input" x="0" y="-352" name="i_clk" />
    <pin polarity="Input" x="0" y="-288" name="i_clr" />
    <pin polarity="Input" x="0" y="-224" name="i_wr" />
    <pin polarity="Input" x="0" y="-160" name="i_rd" />
    <pin polarity="Input" x="0" y="-96" name="i_addr(11:0)" />
    <pin polarity="Input" x="0" y="-32" name="i_data(31:0)" />
    <pin polarity="Output" x="384" y="-352" name="o_miss" />
    <pin polarity="Output" x="384" y="-32" name="o_data(31:0)" />
    <graph>
        <rect width="256" x="64" y="-384" height="384" />
        <attrtext style="alignment:BCENTER;fontsize:56;fontname:Arial" attrname="SymbolName" x="192" y="-392" type="symbol" />
        <attrtext style="fontsize:24;fontname:Arial" attrname="PinName" x="72" y="-352" type="pin i_clk" />
        <line x2="0" y1="-352" y2="-352" x1="64" />
        <attrtext style="fontsize:24;fontname:Arial" attrname="PinName" x="72" y="-288" type="pin i_clr" />
        <line x2="0" y1="-288" y2="-288" x1="64" />
        <attrtext style="fontsize:24;fontname:Arial" attrname="PinName" x="72" y="-224" type="pin i_wr" />
        <line x2="0" y1="-224" y2="-224" x1="64" />
        <attrtext style="fontsize:24;fontname:Arial" attrname="PinName" x="72" y="-160" type="pin i_rd" />
        <line x2="0" y1="-160" y2="-160" x1="64" />
        <attrtext style="fontsize:24;fontname:Arial" attrname="PinName" x="72" y="-96" type="pin i_addr(11:0)" />
        <rect width="64" x="0" y="-108" height="24" />
        <line x2="0" y1="-96" y2="-96" x1="64" />
        <attrtext style="fontsize:24;fontname:Arial" attrname="PinName" x="72" y="-32" type="pin i_data(31:0)" />
        <rect width="64" x="0" y="-44" height="24" />
        <line x2="0" y1="-32" y2="-32" x1="64" />
        <attrtext style="alignment:RIGHT;fontsize:24;fontname:Arial" attrname="PinName" x="312" y="-352" type="pin o_miss" />
        <line x2="384" y1="-352" y2="-352" x1="320" />
        <attrtext style="alignment:RIGHT;fontsize:24;fontname:Arial" attrname="PinName" x="312" y="-32" type="pin o_data(31:0)" />
        <rect width="64" x="320" y="-44" height="24" />
        <line x2="384" y1="-32" y2="-32" x1="320" />
    </graph>
</symbol>
